<?xml version="1.0" encoding="UTF-8"?>
<svg width="170px" height="170px" viewBox="0 0 170 170" version="1.1" xmlns="http://www.w3.org/2000/svg" xmlns:xlink="http://www.w3.org/1999/xlink">
    <!-- Generator: Sketch 39 (31667) - http://www.bohemiancoding.com/sketch -->
    <title>icon-tagihan</title>
    <desc>Created with Sketch.</desc>
    <defs></defs>
    <g id="SLICING" stroke="none" stroke-width="1" fill="none" fill-rule="evenodd">
        <g id="icon-tagihan">
            <g id="Group" transform="translate(0.000000, 16.000000)">
                <g id="Page-1" transform="translate(44.000000, 0.000000)">
                    <polygon id="Fill-1" fill="#FEFEFE" points="14.4238462 9.27632479 7.39649573 5.10367521 -8.54700855e-05 14.364359 -8.54700855e-05 99.1447009 79.3520513 99.1447009 79.3520513 14.364359 72.1264103 6.93529915 65.4725641 9.7857265 58.5853846 3.52333333 52.3819658 10.3506838 46.6751282 3.1865812 39.8930769 9.99683761 33.961453 2.82589744 27.5511966 9.64811966 20.9375214 2.45666667"></polygon>
                    <polygon id="Fill-2" fill="#222B39" points="11.6786325 24.8854701 68.1094017 24.8854701 68.1094017 20.1034188 11.6786325 20.1034188"></polygon>
                    <polygon id="Fill-3" fill="#222B39" points="43.9589744 60.7529915 68.1094017 60.7529915 68.1094017 55.9709402 43.9589744 55.9709402"></polygon>
                    <polygon id="Fill-4" fill="#EF4E5A" points="11.6786325 49.2752137 68.1094017 49.2752137 68.1094017 31.5803419 11.6786325 31.5803419"></polygon>
                    <polygon id="Fill-5" fill="#222B39" points="43.9589744 70.3179487 68.1094017 70.3179487 68.1094017 65.5350427 43.9589744 65.5350427"></polygon>
                    <polygon id="Fill-6" fill="#222B39" points="43.9589744 79.882906 68.1094017 79.882906 68.1094017 75.1008547 43.9589744 75.1008547"></polygon>
                    <polygon id="Fill-7" fill="#222B39" points="43.9589744 89.4470085 68.1094017 89.4470085 68.1094017 84.6641026 43.9589744 84.6641026"></polygon>
                    <polygon id="Fill-8" fill="#222B39" points="43.9589744 99.0119658 68.1094017 99.0119658 68.1094017 94.2299145 43.9589744 94.2299145"></polygon>
                    <polygon id="Fill-9" fill="#222B39" points="11.6786325 89.4470085 35.8290598 89.4470085 35.8290598 84.6641026 11.6786325 84.6641026"></polygon>
                    <polygon id="Fill-10" fill="#222B39" points="11.6786325 99.0119658 35.8290598 99.0119658 35.8290598 94.2299145 11.6786325 94.2299145"></polygon>
                    <polygon id="Fill-11" fill="#222B39" points="11.4051282 79.6512821 36.191453 79.6512821 36.191453 55.7196581 11.4051282 55.7196581"></polygon>
                    <polygon id="Fill-12" fill="#4AC4D8" points="16.5333333 76.2324786 31.9179487 76.2324786 31.9179487 60.8478632 16.5333333 60.8478632"></polygon>
                    <polygon id="Fill-13" fill="#222B39" points="71.9469231 0.854017094 65.4084615 7.19076923 58.9845299 0.854017094 52.7238462 7.19076923 46.3648718 0.854017094 40.0050427 7.31128205 33.9084615 0.854017094 27.3229915 7.31128205 21.0896581 0.854017094 14.6033333 7.31128205 7.97683761 0.854017094 0.293931624 9.58222222 0.293931624 11.4958974 0.293931624 14.3651282 0.293931624 99.3095726 5.42213675 99.3095726 5.42213675 11.2753846 3.66316239 11.2753846 8.35290598 7.44034188 14.7819658 13.8317949 20.7588889 7.64205128 27.2152991 14.1121368 33.4315385 7.6625641 39.995641 13.8830769 46.3417949 7.54888889 52.6742735 13.885641 59.0033333 7.54974359 65.2050427 13.7659829 71.8742735 7.78905983 76.3623077 11.4958974 76.3623077 22.6676923 76.3623077 99.3095726 79.3520513 99.3095726 80.635812 11.2104274 80.635812 9.58222222"></polygon>
                </g>
                <g id="text_iconlanding" transform="translate(0.000000, 114.000000)" font-size="20" font-family="Roboto-Regular, Roboto" fill="#242D3D" font-weight="normal">
                    <text id="VIRTUAL-LOCKER">
                        <tspan x="42.5488281" y="19">TAGIHAN</tspan>
                    </text>
                </g>
            </g>
        </g>
    </g>
</svg>