<?xml version="1.0" encoding="UTF-8"?>
<svg width="170px" height="170px" viewBox="0 0 170 170" version="1.1" xmlns="http://www.w3.org/2000/svg" xmlns:xlink="http://www.w3.org/1999/xlink">
    <!-- Generator: Sketch 39 (31667) - http://www.bohemiancoding.com/sketch -->
    <title>icon-virtuallocker</title>
    <desc>Created with Sketch.</desc>
    <defs>
        <polygon id="path-1" points="0.000185142689 80.6122449 66.0920132 80.6122449 66.0920132 0.666836659 0.000185142689 0.666836659 0.000185142689 80.6122449"></polygon>
    </defs>
    <g id="SLICING" stroke="none" stroke-width="1" fill="none" fill-rule="evenodd">
        <g id="icon-virtuallocker">
            <g id="Group" transform="translate(0.000000, 16.000000)">
                <g id="Page-1" transform="translate(24.000000, 0.000000)">
                    <polygon id="Fill-1" fill="#58C7DE" points="119.429592 16.7814286 65.3377551 38.8885714 3.59387755 21.2997959 57.4673469 2.90489796"></polygon>
                    <g id="Group-21" transform="translate(0.000000, 0.374184)">
                        <path d="M113.611633,66.1207143 L60.6136735,48.2758163 L60.58,47.0819388 L56.7953061,47.0819388 L56.8330612,48.4778571 L8.8922449,71.7319388 L5.57897959,22.2472449 L55.057551,5.35132653 C57.2973469,4.18193878 59.5585714,4.9105102 59.6932653,4.96765306 L117.414694,17.8952041 L113.611633,66.1207143 Z M119.842245,14.5615306 L57.88,0.685 C57.8544898,0.678877551 57.8289796,0.680918367 57.8034694,0.675816327 C57.735102,0.663571429 57.6667347,0.658469388 57.5963265,0.654387755 C57.5187755,0.648265306 57.4422449,0.644183673 57.3636735,0.648265306 C57.3004082,0.652346939 57.2381633,0.661530612 57.174898,0.671734694 C57.0932653,0.683979592 57.0146939,0.699285714 56.9361224,0.722755102 C56.9095918,0.730918367 56.8820408,0.730918367 56.8555102,0.740102041 L2.98306122,19.135 C2.17387755,19.412551 1.64836735,20.1972449 1.70653061,21.0523469 L5.30346939,74.785 C5.34632653,75.4115306 5.69734694,75.9788776 6.24020408,76.2952041 C6.53408163,76.4645918 6.86265306,76.5503061 7.19122449,76.5503061 C7.47183673,76.5503061 7.7555102,76.4880612 8.01673469,76.3605102 L58.8871429,51.6870408 L114.702449,70.4809184 C114.899388,70.5472449 115.103469,70.579898 115.306531,70.579898 C115.673878,70.579898 116.036122,70.4737755 116.349388,70.2666327 C116.836122,69.9462245 117.146327,69.4176531 117.192245,68.8370408 L121.314694,16.5564286 C121.389184,15.6176531 120.761633,14.7666327 119.842245,14.5615306 L119.842245,14.5615306 Z" id="Fill-2" fill="#242D3D"></path>
                        <polygon id="Fill-4" fill="#58C7DE" points="62.9379592 38.5139796 62.9379592 97.087449 4.85632653 74.6578571 0.0920408163 20.9262245"></polygon>
                        <g id="Group-8" transform="translate(0.000000, 18.367347)">
                            <mask id="mask-2" fill="white">
                                <use xlink:href="#path-1"></use>
                            </mask>
                            <g id="Clip-7"></g>
                            <path d="M7.0855102,54.9470408 L61.9171429,75.9817347 L61.9171429,21.5847959 L2.83959184,5.10214286 L7.0855102,54.9470408 Z M65.337551,80.6123469 C65.1110204,80.6123469 64.8855102,80.5715306 64.6681633,80.489898 L5.38653061,58.0603061 C4.70081633,57.8011224 4.22632653,57.1684694 4.17020408,56.4378571 L0.00591836735,2.70418367 C-0.0420408163,2.08989796 0.213061224,1.48989796 0.689591837,1.09806122 C1.16408163,0.70622449 1.80387755,0.571530612 2.39673469,0.734795918 L65.2273469,18.3235714 C66.0477551,18.550102 65.9987755,19.2960204 65.9987755,20.1470408 L65.9987755,78.7205102 C65.9987755,79.3419388 66.3089796,79.9235714 65.7977551,80.2766327 C65.4773469,80.4980612 65.7161224,80.6123469 65.337551,80.6123469 L65.337551,80.6123469 Z" id="Fill-6" fill="#242D3D" mask="url(#mask-2)"></path>
                        </g>
                        <polygon id="Fill-9" fill="#58C7DE" points="117.094796 16.4072449 62.9376531 38.5143878 62.9376531 97.0868367 113.507041 68.6878571"></polygon>
                        <path d="M65.9991837,39.7734694 L65.9991837,93.8357143 L112.861429,67.5520408 L115.310408,19.3173469 L65.9991837,39.7734694 Z M65.3379592,98.9795918 C65.0083673,98.9795918 63.9155102,98.8938776 63.6216327,98.7234694 C63.04,98.3836735 61.917551,97.7612245 61.917551,97.0877551 L61.917551,38.5142857 C61.917551,37.75 63.14,37.0612245 63.845102,36.7683673 L117.183878,14.6622449 C117.783878,14.4091837 118.663469,14.4867347 119.197143,14.8632653 C119.728776,15.2408163 120.123673,15.8642857 120.087959,16.5153061 L117.147143,68.7959184 C117.110408,69.4367347 116.775714,70.0153061 116.217551,70.3336735 L66.2604082,98.7326531 C65.9706122,98.8969388 65.6593878,98.9795918 65.3379592,98.9795918 L65.3379592,98.9795918 Z" id="Fill-11" fill="#242D3D"></path>
                        <polygon id="Fill-13" fill="#FEFEFE" points="20.624898 26.3921429 21.0871429 51.1411224 35.3871429 56.7472449 35.3871429 30.7941837"></polygon>
                        <path d="M24.1838776,49.825102 L35.3869388,53.9944898 L35.3869388,32.2210204 L23.7165306,28.925102 L24.1838776,49.825102 Z M36.5818367,58.6393878 C36.3522449,58.6393878 36.1226531,58.5985714 35.9032653,58.5138776 L21.3042857,52.9077551 C20.5930612,52.6332653 20.1155102,51.9608163 20.0920408,51.1995918 L19.3318367,26.4506122 C19.312449,25.8455102 19.5838776,25.27 20.0604082,24.8985714 C20.5379592,24.5291837 21.1634694,24.4087755 21.7430612,24.5730612 L36.5797959,28.9761224 C37.3910204,29.2087755 37.4277551,29.9506122 37.4277551,30.7944898 L37.4277551,56.747551 C37.4277551,57.3710204 37.6440816,57.9536735 37.1308163,58.3077551 C36.8104082,58.5261224 36.9593878,58.6393878 36.5818367,58.6393878 L36.5818367,58.6393878 Z" id="Fill-15" fill="#242D3D"></path>
                        <polygon id="Fill-17" fill="#FEFEFE" points="22.3573469 26.3921429 73.2838776 6.0727551 89.89 9.79112245 38.8522449 30.7941837"></polygon>
                        <path d="M28.3567347,26.0353061 L38.7230612,28.8026531 L83.62,10.3261224 L73.4414286,8.04653061 L28.3567347,26.0353061 Z M38.8516327,32.6863265 C38.6883673,32.6863265 38.5240816,32.6659184 38.3638776,32.6230612 L21.87,28.22 C21.0822449,28.0097959 20.5169388,27.3179592 20.47,26.5036735 C20.4210204,25.6904082 20.8995918,24.9363265 21.6567347,24.6342857 L72.5822449,4.31489796 C72.9373469,4.17510204 73.325102,4.1444898 73.697551,4.22612245 L90.3036735,7.9455102 C91.1087755,8.12612245 91.7046939,8.80877551 91.775102,9.63122449 C91.8455102,10.4536735 91.3730612,11.2271429 90.6087755,11.5414286 L39.5720408,32.5434694 C39.3414286,32.6383673 39.0965306,32.6863265 38.8516327,32.6863265 L38.8516327,32.6863265 Z" id="Fill-19" fill="#242D3D"></path>
                    </g>
                </g>
                <g id="text_iconlanding" transform="translate(0.000000, 114.000000)" font-size="20" font-family="Roboto-Regular, Roboto" fill="#242D3D" font-weight="normal">
                    <text id="VIRTUAL-LOCKER">
                        <tspan x="6.87011719" y="19">VIRTUAL LOCKER</tspan>
                    </text>
                </g>
            </g>
        </g>
    </g>
</svg>